simulation/modelsim/msim_transcript
# Reading C:/altera/13.0sp1/modelsim_ase/tcl/vsim/pref.tcl 
# do alarm_run_msim_rtl_verilog.do 
# if {[file exists rtl_work]} {
# 	vdel -lib rtl_work -all
# }
# vlib rtl_work
# vmap work rtl_work
# Copying C:\altera\13.0sp1\modelsim_ase\win32aloem/../modelsim.ini to modelsim.ini
# Modifying modelsim.ini
# ** Warning: Copied C:\altera\13.0sp1\modelsim_ase\win32aloem/../modelsim.ini to modelsim.ini.
#          Updated modelsim.ini.
# 
# vlog -sv -work work +incdir+D:/Clock {D:/Clock/SevenSegEncoder.sv}
# Model Technology ModelSim ALTERA vlog 10.1d Compiler 2012.11 Nov  2 2012
# -- Compiling module SevenSegEncoder
# 
# Top level modules:
# 	SevenSegEncoder
# vlog -sv -work work +incdir+D:/Clock {D:/Clock/DigitSplitter.sv}
# Model Technology ModelSim ALTERA vlog 10.1d Compiler 2012.11 Nov  2 2012
# -- Compiling module DigitSplitter
# 
# Top level modules:
# 	DigitSplitter
# vlog -sv -work work +incdir+D:/Clock {D:/Clock/ClockPins.sv}
# Model Technology ModelSim ALTERA vlog 10.1d Compiler 2012.11 Nov  2 2012
# -- Compiling module ClockPins
# 
# Top level modules:
# 	ClockPins
# vlog -sv -work work +incdir+D:/Clock {D:/Clock/TickCounter.sv}
# Model Technology ModelSim ALTERA vlog 10.1d Compiler 2012.11 Nov  2 2012
# -- Compiling module TickCounter
# ** Warning: D:/Clock/TickCounter.sv(2): (vlog-2597) '3000000000' is being treated as 32-bit signed integer and will overflow.
# 
# 
# Top level modules:
# 	TickCounter
# vlog -sv -work work +incdir+D:/Clock {D:/Clock/TimeCounter.sv}
# Model Technology ModelSim ALTERA vlog 10.1d Compiler 2012.11 Nov  2 2012
# -- Compiling module TimeCounter
# 
# Top level modules:
# 	TimeCounter
# vlog -sv -work work +incdir+D:/Clock {D:/Clock/ClockTop.sv}
# Model Technology ModelSim ALTERA vlog 10.1d Compiler 2012.11 Nov  2 2012
# -- Compiling module ClockTop
# ** Warning: D:/Clock/ClockTop.sv(2): (vlog-2597) '3000000000' is being treated as 32-bit signed integer and will overflow.
# 
# 
# Top level modules:
# 	ClockTop
# vlog -sv -work work +incdir+D:/Clock {D:/Clock/AlarmModule.sv}
# Model Technology ModelSim ALTERA vlog 10.1d Compiler 2012.11 Nov  2 2012
# -- Compiling module AlarmModule
# 
# Top level modules:
# 	AlarmModule
# vlog -sv -work work +incdir+D:/Clock {D:/Clock/SettingsModule.sv}
# Model Technology ModelSim ALTERA vlog 10.1d Compiler 2012.11 Nov  2 2012
# -- Compiling module SettingsModule
# 
# Top level modules:
# 	SettingsModule
# 
# vlog -sv -work work +incdir+D:/Clock {D:/Clock/ClockTop_tb.sv}
# Model Technology ModelSim ALTERA vlog 10.1d Compiler 2012.11 Nov  2 2012
# -- Compiling module ClockTop_tb
# 
# Top level modules:
# 	ClockTop_tb
# 
# vsim -t 1ps -L altera_ver -L lpm_ver -L sgate_ver -L altera_mf_ver -L altera_lnsim_ver -L cyclonev_ver -L cyclonev_hssi_ver -L cyclonev_pcie_hip_ver -L rtl_work -L work -voptargs="+acc"  ClockTop_tb
# vsim -L altera_ver -L lpm_ver -L sgate_ver -L altera_mf_ver -L altera_lnsim_ver -L cyclonev_ver -L cyclonev_hssi_ver -L cyclonev_pcie_hip_ver -L rtl_work -L work -voptargs=\"+acc\" -t 1ps ClockTop_tb 
# Loading sv_std.std
# Loading work.ClockTop_tb
# Loading work.ClockTop
# Loading work.TickCounter
# Loading work.TimeCounter
# Loading work.SettingsModule
# Loading work.AlarmModule
# Loading work.DigitSplitter
# Loading work.SevenSegEncoder
# ** Warning: (vsim-3017) D:/Clock/ClockTop_tb.sv(21): [TFMPC] - Too few port connections. Expected 9, found 5.
# 
#         Region: /ClockTop_tb/dut
# ** Warning: (vsim-3722) D:/Clock/ClockTop_tb.sv(21): [TFMPC] - Missing connection for port 'seg_hour_tens_3'.
# 
# ** Warning: (vsim-3722) D:/Clock/ClockTop_tb.sv(21): [TFMPC] - Missing connection for port 'seg_hour_units_2'.
# 
# ** Warning: (vsim-3722) D:/Clock/ClockTop_tb.sv(21): [TFMPC] - Missing connection for port 'seg_min_tens_1'.
# 
# ** Warning: (vsim-3722) D:/Clock/ClockTop_tb.sv(21): [TFMPC] - Missing connection for port 'seg_min_units_0'.
# 
# ** Warning: (vsim-3017) D:/Clock/ClockTop.sv(58): [TFMPC] - Too few port connections. Expected 5, found 4.
# 
#         Region: /ClockTop_tb/dut/hour_counter
# ** Warning: (vsim-3722) D:/Clock/ClockTop.sv(58): [TFMPC] - Missing connection for port 'rollover'.
# 
# ** Warning: (vsim-3015) D:/Clock/ClockTop.sv(86): [PCDPC] - Port size (6 or 6) does not match connection size (7) for port 'value'. The port definition is at: D:/Clock/DigitSplitter.sv(7).
# 
#         Region: /ClockTop_tb/dut/minute_splt
# ** Warning: (vsim-3015) D:/Clock/ClockTop.sv(86): [PCDPC] - Port size (3 or 3) does not match connection size (1) for port 'tens'. The port definition is at: D:/Clock/DigitSplitter.sv(8).
# 
#         Region: /ClockTop_tb/dut/minute_splt
# ** Warning: (vsim-3015) D:/Clock/ClockTop.sv(86): [PCDPC] - Port size (4 or 4) does not match connection size (1) for port 'units'. The port definition is at: D:/Clock/DigitSplitter.sv(9).
# 
#         Region: /ClockTop_tb/dut/minute_splt
# ** Warning: (vsim-3015) D:/Clock/ClockTop.sv(93): [PCDPC] - Port size (3 or 3) does not match connection size (1) for port 'tens'. The port definition is at: D:/Clock/DigitSplitter.sv(8).
# 
#         Region: /ClockTop_tb/dut/hour_splt
# ** Warning: (vsim-3015) D:/Clock/ClockTop.sv(93): [PCDPC] - Port size (4 or 4) does not match connection size (1) for port 'units'. The port definition is at: D:/Clock/DigitSplitter.sv(9).
# 
#         Region: /ClockTop_tb/dut/hour_splt
# ** Warning: (vsim-3015) D:/Clock/ClockTop.sv(100): [PCDPC] - Port size (4 or 4) does not match connection size (1) for port 'digit'. The port definition is at: D:/Clock/SevenSegEncoder.sv(2).
# 
#         Region: /ClockTop_tb/dut/seg_min_units_enc
# ** Warning: (vsim-3015) D:/Clock/ClockTop.sv(105): [PCDPC] - Port size (4 or 4) does not match connection size (1) for port 'digit'. The port definition is at: D:/Clock/SevenSegEncoder.sv(2).
# 
#         Region: /ClockTop_tb/dut/seg_min_tens_enc
# ** Warning: (vsim-3015) D:/Clock/ClockTop.sv(110): [PCDPC] - Port size (4 or 4) does not match connection size (1) for port 'digit'. The port definition is at: D:/Clock/SevenSegEncoder.sv(2).
# 
#         Region: /ClockTop_tb/dut/seg_hour_units_enc
# ** Warning: (vsim-3015) D:/Clock/ClockTop.sv(115): [PCDPC] - Port size (4 or 4) does not match connection size (1) for port 'digit'. The port definition is at: D:/Clock/SevenSegEncoder.sv(2).
# 
#         Region: /ClockTop_tb/dut/seg_hour_tens_enc
# 
# add wave *
# view structure
# .main_pane.structure.interior.cs.body.struct
# view signals
# .main_pane.objects.interior.cs.body.tree
# run -all
# Time: 25000 ns | Minutes: 0 | Hours: 0 | Alarm: x
# Time: 35000 ns | Minutes: 0 | Hours: 0 | Alarm: 0
# Time: 45000 ns | Minutes: 1 | Hours: 0 | Alarm: 0
# Time: 55000 ns | Minutes: 1 | Hours: 0 | Alarm: 0
# Time: 65000 ns | Minutes: 2 | Hours: 0 | Alarm: 0
# Time: 75000 ns | Minutes: 2 | Hours: 0 | Alarm: 0
# Time: 85000 ns | Minutes: 3 | Hours: 0 | Alarm: 0
# Time: 95000 ns | Minutes: 3 | Hours: 0 | Alarm: 0
# Time: 105000 ns | Minutes: 4 | Hours: 0 | Alarm: 0
# Time: 115000 ns | Minutes: 4 | Hours: 0 | Alarm: 0
# Time: 125000 ns | Minutes: 5 | Hours: 0 | Alarm: 0
# Time: 135000 ns | Minutes: 5 | Hours: 0 | Alarm: 0
# Time: 145000 ns | Minutes: 6 | Hours: 0 | Alarm: 0
# Time: 155000 ns | Minutes: 6 | Hours: 0 | Alarm: 0
# Time: 165000 ns | Minutes: 7 | Hours: 0 | Alarm: 0
# Time: 175000 ns | Minutes: 7 | Hours: 0 | Alarm: 0
# Time: 185000 ns | Minutes: 8 | Hours: 0 | Alarm: 0
# Time: 195000 ns | Minutes: 8 | Hours: 0 | Alarm: 0
# Time: 205000 ns | Minutes: 9 | Hours: 0 | Alarm: 0
# Time: 215000 ns | Minutes: 9 | Hours: 0 | Alarm: 0
# Time: 225000 ns | Minutes: 10 | Hours: 0 | Alarm: 0
# Time: 235000 ns | Minutes: 10 | Hours: 0 | Alarm: 0
# Time: 245000 ns | Minutes: 11 | Hours: 0 | Alarm: 0
# Time: 255000 ns | Minutes: 11 | Hours: 0 | Alarm: 0
# Time: 265000 ns | Minutes: 12 | Hours: 0 | Alarm: 0
# Time: 275000 ns | Minutes: 12 | Hours: 0 | Alarm: 0
# Time: 285000 ns | Minutes: 13 | Hours: 0 | Alarm: 0
# Time: 295000 ns | Minutes: 13 | Hours: 0 | Alarm: 0
# Time: 305000 ns | Minutes: 14 | Hours: 0 | Alarm: 0
# Time: 315000 ns | Minutes: 14 | Hours: 0 | Alarm: 0
# Time: 325000 ns | Minutes: 15 | Hours: 0 | Alarm: 0
# Time: 335000 ns | Minutes: 15 | Hours: 0 | Alarm: 0
# Time: 345000 ns | Minutes: 16 | Hours: 0 | Alarm: 0
# Time: 355000 ns | Minutes: 16 | Hours: 0 | Alarm: 0
# Time: 365000 ns | Minutes: 17 | Hours: 0 | Alarm: 0
# Time: 375000 ns | Minutes: 17 | Hours: 0 | Alarm: 0
# Time: 385000 ns | Minutes: 18 | Hours: 0 | Alarm: 0
# Time: 395000 ns | Minutes: 18 | Hours: 0 | Alarm: 0
# Time: 405000 ns | Minutes: 19 | Hours: 0 | Alarm: 0
# Time: 415000 ns | Minutes: 19 | Hours: 0 | Alarm: 0
# Time: 425000 ns | Minutes: 20 | Hours: 0 | Alarm: 0
# Time: 435000 ns | Minutes: 20 | Hours: 0 | Alarm: 0
# Time: 445000 ns | Minutes: 21 | Hours: 0 | Alarm: 0
# Time: 455000 ns | Minutes: 21 | Hours: 0 | Alarm: 0
# Time: 465000 ns | Minutes: 22 | Hours: 0 | Alarm: 0
# Time: 475000 ns | Minutes: 22 | Hours: 0 | Alarm: 0
# Time: 485000 ns | Minutes: 23 | Hours: 0 | Alarm: 0
# Time: 495000 ns | Minutes: 23 | Hours: 0 | Alarm: 0
# Time: 505000 ns | Minutes: 24 | Hours: 0 | Alarm: 0
# Time: 515000 ns | Minutes: 24 | Hours: 0 | Alarm: 0
# Time: 525000 ns | Minutes: 25 | Hours: 0 | Alarm: 0
# Time: 535000 ns | Minutes: 25 | Hours: 0 | Alarm: 0
# Time: 545000 ns | Minutes: 26 | Hours: 0 | Alarm: 0
# Time: 555000 ns | Minutes: 26 | Hours: 0 | Alarm: 0
# Time: 565000 ns | Minutes: 27 | Hours: 0 | Alarm: 0
# Time: 575000 ns | Minutes: 27 | Hours: 0 | Alarm: 0
# Time: 585000 ns | Minutes: 28 | Hours: 0 | Alarm: 0
# Time: 595000 ns | Minutes: 28 | Hours: 0 | Alarm: 0
# Time: 605000 ns | Minutes: 29 | Hours: 0 | Alarm: 0
# Time: 615000 ns | Minutes: 29 | Hours: 0 | Alarm: 0
# Time: 625000 ns | Minutes: 30 | Hours: 0 | Alarm: 0
# Time: 635000 ns | Minutes: 30 | Hours: 0 | Alarm: 0
# Time: 645000 ns | Minutes: 31 | Hours: 0 | Alarm: 0
# Time: 655000 ns | Minutes: 31 | Hours: 0 | Alarm: 0
# Time: 665000 ns | Minutes: 32 | Hours: 0 | Alarm: 0
# Time: 675000 ns | Minutes: 32 | Hours: 0 | Alarm: 0
# Time: 685000 ns | Minutes: 33 | Hours: 0 | Alarm: 0
# Time: 695000 ns | Minutes: 33 | Hours: 0 | Alarm: 0
# Time: 705000 ns | Minutes: 34 | Hours: 0 | Alarm: 0
# Time: 715000 ns | Minutes: 34 | Hours: 0 | Alarm: 0
# Time: 725000 ns | Minutes: 35 | Hours: 0 | Alarm: 0
# Time: 735000 ns | Minutes: 35 | Hours: 0 | Alarm: 0
# Time: 745000 ns | Minutes: 36 | Hours: 0 | Alarm: 0
# Time: 755000 ns | Minutes: 36 | Hours: 0 | Alarm: 0
# Time: 765000 ns | Minutes: 37 | Hours: 0 | Alarm: 0
# Time: 775000 ns | Minutes: 37 | Hours: 0 | Alarm: 0
# Time: 785000 ns | Minutes: 38 | Hours: 0 | Alarm: 0
# Time: 795000 ns | Minutes: 38 | Hours: 0 | Alarm: 0
# Time: 805000 ns | Minutes: 39 | Hours: 0 | Alarm: 0
# Time: 815000 ns | Minutes: 39 | Hours: 0 | Alarm: 0
# Time: 825000 ns | Minutes: 40 | Hours: 0 | Alarm: 0
# Time: 835000 ns | Minutes: 40 | Hours: 0 | Alarm: 0
# Time: 845000 ns | Minutes: 41 | Hours: 0 | Alarm: 0
# Time: 855000 ns | Minutes: 41 | Hours: 0 | Alarm: 0
# Time: 865000 ns | Minutes: 42 | Hours: 0 | Alarm: 0
# Time: 875000 ns | Minutes: 42 | Hours: 0 | Alarm: 0
# Time: 885000 ns | Minutes: 43 | Hours: 0 | Alarm: 0
# Time: 895000 ns | Minutes: 43 | Hours: 0 | Alarm: 0
# Time: 905000 ns | Minutes: 44 | Hours: 0 | Alarm: 0
# Time: 915000 ns | Minutes: 44 | Hours: 0 | Alarm: 0
# Time: 925000 ns | Minutes: 45 | Hours: 0 | Alarm: 0
# Time: 935000 ns | Minutes: 45 | Hours: 0 | Alarm: 0
# Time: 945000 ns | Minutes: 46 | Hours: 0 | Alarm: 0
# Time: 955000 ns | Minutes: 46 | Hours: 0 | Alarm: 0
# Time: 965000 ns | Minutes: 47 | Hours: 0 | Alarm: 0
# Time: 975000 ns | Minutes: 47 | Hours: 0 | Alarm: 0
# Time: 985000 ns | Minutes: 48 | Hours: 0 | Alarm: 0
# Time: 995000 ns | Minutes: 48 | Hours: 0 | Alarm: 0
# Time: 1005000 ns | Minutes: 49 | Hours: 0 | Alarm: 0
# Time: 1015000 ns | Minutes: 49 | Hours: 0 | Alarm: 0
# Time: 1025000 ns | Minutes: 50 | Hours: 0 | Alarm: 0
# Time: 1035000 ns | Minutes: 50 | Hours: 0 | Alarm: 0
# Time: 1045000 ns | Minutes: 51 | Hours: 0 | Alarm: 0
# Time: 1055000 ns | Minutes: 51 | Hours: 0 | Alarm: 0
# Time: 1065000 ns | Minutes: 52 | Hours: 0 | Alarm: 0
# Time: 1075000 ns | Minutes: 52 | Hours: 0 | Alarm: 0
# Time: 1085000 ns | Minutes: 53 | Hours: 0 | Alarm: 0
# Time: 1095000 ns | Minutes: 53 | Hours: 0 | Alarm: 0
# Time: 1105000 ns | Minutes: 54 | Hours: 0 | Alarm: 0
# Time: 1115000 ns | Minutes: 54 | Hours: 0 | Alarm: 0
# Time: 1125000 ns | Minutes: 55 | Hours: 0 | Alarm: 0
# Time: 1135000 ns | Minutes: 55 | Hours: 0 | Alarm: 0
# Time: 1145000 ns | Minutes: 56 | Hours: 0 | Alarm: 0
# Time: 1155000 ns | Minutes: 56 | Hours: 0 | Alarm: 0
# Time: 1165000 ns | Minutes: 57 | Hours: 0 | Alarm: 0
# Time: 1175000 ns | Minutes: 57 | Hours: 0 | Alarm: 0
# Time: 1185000 ns | Minutes: 58 | Hours: 0 | Alarm: 0
# Time: 1195000 ns | Minutes: 58 | Hours: 0 | Alarm: 0
# Time: 1205000 ns | Minutes: 59 | Hours: 0 | Alarm: 0
# Time: 1215000 ns | Minutes: 59 | Hours: 0 | Alarm: 0
# Time: 1225000 ns | Minutes: 0 | Hours: 1 | Alarm: 0
# Time: 1235000 ns | Minutes: 0 | Hours: 1 | Alarm: 0
# Time: 1245000 ns | Minutes: 1 | Hours: 1 | Alarm: 0
# Time: 1255000 ns | Minutes: 1 | Hours: 1 | Alarm: 0
# Time: 1265000 ns | Minutes: 2 | Hours: 1 | Alarm: 0
# Time: 1275000 ns | Minutes: 2 | Hours: 1 | Alarm: 0
# Time: 1285000 ns | Minutes: 3 | Hours: 1 | Alarm: 0
# Time: 1295000 ns | Minutes: 3 | Hours: 1 | Alarm: 0
# Time: 1305000 ns | Minutes: 4 | Hours: 1 | Alarm: 0
# Time: 1315000 ns | Minutes: 4 | Hours: 1 | Alarm: 0
# Time: 1325000 ns | Minutes: 5 | Hours: 1 | Alarm: 0
# Time: 1335000 ns | Minutes: 5 | Hours: 1 | Alarm: 0
# Time: 1345000 ns | Minutes: 6 | Hours: 1 | Alarm: 0
# Time: 1355000 ns | Minutes: 6 | Hours: 1 | Alarm: 0
# Time: 1365000 ns | Minutes: 7 | Hours: 1 | Alarm: 0
# Time: 1375000 ns | Minutes: 7 | Hours: 1 | Alarm: 0
# Time: 1385000 ns | Minutes: 8 | Hours: 1 | Alarm: 0
# Time: 1395000 ns | Minutes: 8 | Hours: 1 | Alarm: 0
# Time: 1405000 ns | Minutes: 9 | Hours: 1 | Alarm: 0
# Time: 1415000 ns | Minutes: 9 | Hours: 1 | Alarm: 0
# Time: 1425000 ns | Minutes: 10 | Hours: 1 | Alarm: 0
# Time: 1435000 ns | Minutes: 10 | Hours: 1 | Alarm: 0
# Time: 1445000 ns | Minutes: 11 | Hours: 1 | Alarm: 0
# Time: 1455000 ns | Minutes: 11 | Hours: 1 | Alarm: 0
# Time: 1465000 ns | Minutes: 12 | Hours: 1 | Alarm: 0
# Time: 1475000 ns | Minutes: 12 | Hours: 1 | Alarm: 0
# Time: 1485000 ns | Minutes: 13 | Hours: 1 | Alarm: 0
# Time: 1495000 ns | Minutes: 13 | Hours: 1 | Alarm: 0
# Time: 1505000 ns | Minutes: 14 | Hours: 1 | Alarm: 0
# Time: 1515000 ns | Minutes: 14 | Hours: 1 | Alarm: 0
# Time: 1525000 ns | Minutes: 15 | Hours: 1 | Alarm: 0
# Time: 1535000 ns | Minutes: 15 | Hours: 1 | Alarm: 0
# Time: 1545000 ns | Minutes: 16 | Hours: 1 | Alarm: 0
# Time: 1555000 ns | Minutes: 16 | Hours: 1 | Alarm: 0
# Time: 1565000 ns | Minutes: 17 | Hours: 1 | Alarm: 0
# Time: 1575000 ns | Minutes: 17 | Hours: 1 | Alarm: 0
# Time: 1585000 ns | Minutes: 18 | Hours: 1 | Alarm: 0
# Time: 1595000 ns | Minutes: 18 | Hours: 1 | Alarm: 0
# Time: 1605000 ns | Minutes: 19 | Hours: 1 | Alarm: 0
# Time: 1615000 ns | Minutes: 19 | Hours: 1 | Alarm: 0
# Time: 1625000 ns | Minutes: 20 | Hours: 1 | Alarm: 0
# Time: 1635000 ns | Minutes: 20 | Hours: 1 | Alarm: 0
# Time: 1645000 ns | Minutes: 21 | Hours: 1 | Alarm: 0
# Time: 1655000 ns | Minutes: 21 | Hours: 1 | Alarm: 0
# Time: 1665000 ns | Minutes: 22 | Hours: 1 | Alarm: 0
# Time: 1675000 ns | Minutes: 22 | Hours: 1 | Alarm: 0
# Time: 1685000 ns | Minutes: 23 | Hours: 1 | Alarm: 0
# Time: 1695000 ns | Minutes: 23 | Hours: 1 | Alarm: 0
# Time: 1705000 ns | Minutes: 24 | Hours: 1 | Alarm: 0
# Time: 1715000 ns | Minutes: 24 | Hours: 1 | Alarm: 0
# Time: 1725000 ns | Minutes: 25 | Hours: 1 | Alarm: 0
# Time: 1735000 ns | Minutes: 25 | Hours: 1 | Alarm: 0
# Time: 1745000 ns | Minutes: 26 | Hours: 1 | Alarm: 0
# Time: 1755000 ns | Minutes: 26 | Hours: 1 | Alarm: 0
# Time: 1765000 ns | Minutes: 27 | Hours: 1 | Alarm: 0
# Time: 1775000 ns | Minutes: 27 | Hours: 1 | Alarm: 0
# Time: 1785000 ns | Minutes: 28 | Hours: 1 | Alarm: 0
# Time: 1795000 ns | Minutes: 28 | Hours: 1 | Alarm: 0
# Time: 1805000 ns | Minutes: 29 | Hours: 1 | Alarm: 0
# Time: 1815000 ns | Minutes: 29 | Hours: 1 | Alarm: 0
# Time: 1825000 ns | Minutes: 30 | Hours: 1 | Alarm: 0
# Time: 1835000 ns | Minutes: 30 | Hours: 1 | Alarm: 0
# Time: 1845000 ns | Minutes: 31 | Hours: 1 | Alarm: 0
# Time: 1855000 ns | Minutes: 31 | Hours: 1 | Alarm: 0
# Time: 1865000 ns | Minutes: 32 | Hours: 1 | Alarm: 0
# Time: 1875000 ns | Minutes: 32 | Hours: 1 | Alarm: 0
# Time: 1885000 ns | Minutes: 33 | Hours: 1 | Alarm: 0
# Time: 1895000 ns | Minutes: 33 | Hours: 1 | Alarm: 0
# Time: 1905000 ns | Minutes: 34 | Hours: 1 | Alarm: 0
# Time: 1915000 ns | Minutes: 34 | Hours: 1 | Alarm: 0
# Time: 1925000 ns | Minutes: 35 | Hours: 1 | Alarm: 0
# Time: 1935000 ns | Minutes: 35 | Hours: 1 | Alarm: 0
# Time: 1945000 ns | Minutes: 36 | Hours: 1 | Alarm: 0
# Time: 1955000 ns | Minutes: 36 | Hours: 1 | Alarm: 0
# Time: 1965000 ns | Minutes: 37 | Hours: 1 | Alarm: 0
# Time: 1975000 ns | Minutes: 37 | Hours: 1 | Alarm: 0
# Time: 1985000 ns | Minutes: 38 | Hours: 1 | Alarm: 0
# Time: 1995000 ns | Minutes: 38 | Hours: 1 | Alarm: 0
# Time: 2005000 ns | Minutes: 39 | Hours: 1 | Alarm: 0
# Time: 2015000 ns | Minutes: 39 | Hours: 1 | Alarm: 0
# Time: 2025000 ns | Minutes: 40 | Hours: 1 | Alarm: 0
# Time: 2035000 ns | Minutes: 40 | Hours: 1 | Alarm: 0
# Time: 2045000 ns | Minutes: 41 | Hours: 1 | Alarm: 0
# Time: 2055000 ns | Minutes: 41 | Hours: 1 | Alarm: 0
# Time: 2065000 ns | Minutes: 42 | Hours: 1 | Alarm: 0
# Time: 2075000 ns | Minutes: 42 | Hours: 1 | Alarm: 0
# Time: 2085000 ns | Minutes: 43 | Hours: 1 | Alarm: 0
# Time: 2095000 ns | Minutes: 43 | Hours: 1 | Alarm: 0
# Time: 2105000 ns | Minutes: 44 | Hours: 1 | Alarm: 0
# Time: 2115000 ns | Minutes: 44 | Hours: 1 | Alarm: 0
# Time: 2125000 ns | Minutes: 45 | Hours: 1 | Alarm: 0
# Time: 2135000 ns | Minutes: 45 | Hours: 1 | Alarm: 0
# Time: 2145000 ns | Minutes: 46 | Hours: 1 | Alarm: 0
# Time: 2155000 ns | Minutes: 46 | Hours: 1 | Alarm: 0
# Time: 2165000 ns | Minutes: 47 | Hours: 1 | Alarm: 0
# Time: 2175000 ns | Minutes: 47 | Hours: 1 | Alarm: 0
# Time: 2185000 ns | Minutes: 48 | Hours: 1 | Alarm: 0
# Time: 2195000 ns | Minutes: 48 | Hours: 1 | Alarm: 0
# Time: 2205000 ns | Minutes: 49 | Hours: 1 | Alarm: 0
# Time: 2215000 ns | Minutes: 49 | Hours: 1 | Alarm: 0
# Time: 2225000 ns | Minutes: 50 | Hours: 1 | Alarm: 0
# Time: 2235000 ns | Minutes: 50 | Hours: 1 | Alarm: 0
# Time: 2245000 ns | Minutes: 51 | Hours: 1 | Alarm: 0
# Time: 2255000 ns | Minutes: 51 | Hours: 1 | Alarm: 0
# Time: 2265000 ns | Minutes: 52 | Hours: 1 | Alarm: 0
# Time: 2275000 ns | Minutes: 52 | Hours: 1 | Alarm: 0
# Time: 2285000 ns | Minutes: 53 | Hours: 1 | Alarm: 0
# Time: 2295000 ns | Minutes: 53 | Hours: 1 | Alarm: 0
# Time: 2305000 ns | Minutes: 54 | Hours: 1 | Alarm: 0
# Time: 2315000 ns | Minutes: 54 | Hours: 1 | Alarm: 0
# Time: 2325000 ns | Minutes: 55 | Hours: 1 | Alarm: 0
# Time: 2335000 ns | Minutes: 55 | Hours: 1 | Alarm: 0
# Time: 2345000 ns | Minutes: 56 | Hours: 1 | Alarm: 0
# Time: 2355000 ns | Minutes: 56 | Hours: 1 | Alarm: 0
# Time: 2365000 ns | Minutes: 57 | Hours: 1 | Alarm: 0
# Time: 2375000 ns | Minutes: 57 | Hours: 1 | Alarm: 0
# Time: 2385000 ns | Minutes: 58 | Hours: 1 | Alarm: 0
# Time: 2395000 ns | Minutes: 58 | Hours: 1 | Alarm: 0
# Time: 2405000 ns | Minutes: 59 | Hours: 1 | Alarm: 0
# Time: 2415000 ns | Minutes: 59 | Hours: 1 | Alarm: 0
# Time: 2425000 ns | Minutes: 0 | Hours: 2 | Alarm: 0
# Time: 2435000 ns | Minutes: 0 | Hours: 2 | Alarm: 0
# Time: 2445000 ns | Minutes: 1 | Hours: 2 | Alarm: 0
# Time: 2455000 ns | Minutes: 1 | Hours: 2 | Alarm: 0
# Time: 2465000 ns | Minutes: 2 | Hours: 2 | Alarm: 0
# Time: 2475000 ns | Minutes: 2 | Hours: 2 | Alarm: 0
# Time: 2485000 ns | Minutes: 3 | Hours: 2 | Alarm: 0
# Time: 2495000 ns | Minutes: 3 | Hours: 2 | Alarm: 0
# Time: 2505000 ns | Minutes: 4 | Hours: 2 | Alarm: 0
# Time: 2515000 ns | Minutes: 4 | Hours: 2 | Alarm: 0
# Time: 2525000 ns | Minutes: 5 | Hours: 2 | Alarm: 0
# Time: 2535000 ns | Minutes: 5 | Hours: 2 | Alarm: 0
# Time: 2545000 ns | Minutes: 6 | Hours: 2 | Alarm: 0
# Time: 2555000 ns | Minutes: 6 | Hours: 2 | Alarm: 0
# Time: 2565000 ns | Minutes: 7 | Hours: 2 | Alarm: 0
# Time: 2575000 ns | Minutes: 7 | Hours: 2 | Alarm: 0
# Time: 2585000 ns | Minutes: 8 | Hours: 2 | Alarm: 0
# Time: 2595000 ns | Minutes: 8 | Hours: 2 | Alarm: 0
# Time: 2605000 ns | Minutes: 9 | Hours: 2 | Alarm: 0
# Time: 2615000 ns | Minutes: 9 | Hours: 2 | Alarm: 0
# Time: 2625000 ns | Minutes: 10 | Hours: 2 | Alarm: 0
# Time: 2635000 ns | Minutes: 10 | Hours: 2 | Alarm: 0
# Time: 2645000 ns | Minutes: 11 | Hours: 2 | Alarm: 0
# Time: 2655000 ns | Minutes: 11 | Hours: 2 | Alarm: 0
# Time: 2665000 ns | Minutes: 12 | Hours: 2 | Alarm: 0
# Time: 2675000 ns | Minutes: 12 | Hours: 2 | Alarm: 0
# Time: 2685000 ns | Minutes: 13 | Hours: 2 | Alarm: 0
# Time: 2695000 ns | Minutes: 13 | Hours: 2 | Alarm: 0
# Time: 2705000 ns | Minutes: 14 | Hours: 2 | Alarm: 0
# Time: 2715000 ns | Minutes: 14 | Hours: 2 | Alarm: 0
# Time: 2725000 ns | Minutes: 15 | Hours: 2 | Alarm: 0
# Time: 2735000 ns | Minutes: 15 | Hours: 2 | Alarm: 0
# Time: 2745000 ns | Minutes: 16 | Hours: 2 | Alarm: 0
# Time: 2755000 ns | Minutes: 16 | Hours: 2 | Alarm: 0
# Time: 2765000 ns | Minutes: 17 | Hours: 2 | Alarm: 0
# Time: 2775000 ns | Minutes: 17 | Hours: 2 | Alarm: 0
# Time: 2785000 ns | Minutes: 18 | Hours: 2 | Alarm: 0
# Time: 2795000 ns | Minutes: 18 | Hours: 2 | Alarm: 0
# Time: 2805000 ns | Minutes: 19 | Hours: 2 | Alarm: 0
# Time: 2815000 ns | Minutes: 19 | Hours: 2 | Alarm: 0
# Time: 2825000 ns | Minutes: 20 | Hours: 2 | Alarm: 0
# Time: 2835000 ns | Minutes: 20 | Hours: 2 | Alarm: 0
# Time: 2845000 ns | Minutes: 21 | Hours: 2 | Alarm: 0
# Time: 2855000 ns | Minutes: 21 | Hours: 2 | Alarm: 0
# Time: 2865000 ns | Minutes: 22 | Hours: 2 | Alarm: 0
# Time: 2875000 ns | Minutes: 22 | Hours: 2 | Alarm: 0
# Time: 2885000 ns | Minutes: 23 | Hours: 2 | Alarm: 0
# Time: 2895000 ns | Minutes: 23 | Hours: 2 | Alarm: 0
# Time: 2905000 ns | Minutes: 24 | Hours: 2 | Alarm: 0
# Time: 2915000 ns | Minutes: 24 | Hours: 2 | Alarm: 0
# Time: 2925000 ns | Minutes: 25 | Hours: 2 | Alarm: 0
# Time: 2935000 ns | Minutes: 25 | Hours: 2 | Alarm: 0
# Time: 2945000 ns | Minutes: 26 | Hours: 2 | Alarm: 0
# Time: 2955000 ns | Minutes: 26 | Hours: 2 | Alarm: 0
# Time: 2965000 ns | Minutes: 27 | Hours: 2 | Alarm: 0
# Time: 2975000 ns | Minutes: 27 | Hours: 2 | Alarm: 0
# Time: 2985000 ns | Minutes: 28 | Hours: 2 | Alarm: 0
# Time: 2995000 ns | Minutes: 28 | Hours: 2 | Alarm: 0
# Time: 3005000 ns | Minutes: 29 | Hours: 2 | Alarm: 0
# Time: 3015000 ns | Minutes: 29 | Hours: 2 | Alarm: 0
# Time: 3025000 ns | Minutes: 30 | Hours: 2 | Alarm: 0
# Time: 3035000 ns | Minutes: 30 | Hours: 2 | Alarm: 0
# Time: 3045000 ns | Minutes: 31 | Hours: 2 | Alarm: 0
# Time: 3055000 ns | Minutes: 31 | Hours: 2 | Alarm: 0
# Time: 3065000 ns | Minutes: 32 | Hours: 2 | Alarm: 0
# Time: 3075000 ns | Minutes: 32 | Hours: 2 | Alarm: 0
# Time: 3085000 ns | Minutes: 33 | Hours: 2 | Alarm: 0
# Time: 3095000 ns | Minutes: 33 | Hours: 2 | Alarm: 0
# Time: 3105000 ns | Minutes: 34 | Hours: 2 | Alarm: 0
# Time: 3115000 ns | Minutes: 34 | Hours: 2 | Alarm: 0
# Time: 3125000 ns | Minutes: 35 | Hours: 2 | Alarm: 0
# Time: 3135000 ns | Minutes: 35 | Hours: 2 | Alarm: 0
